\relax 
\providecommand\babel@aux[2]{}
\@nameuse{bbl@beforestart}
\catcode `"\active 
\providecommand \oddpage@label [2]{}
\babel@aux{english}{}
\citation{Hawkins}
\citation{Bellman}
\@writefile{toc}{\contentsline {chapter}{\numberline {1}Introduction}{3}{}\protected@file@percent }
\@writefile{lof}{\addvspace {10\p@ }}
\@writefile{lot}{\addvspace {10\p@ }}
\citation{PCA}
\citation{Isomap}
\citation{t-SNE}
\citation{MDS}
\citation{UMAP}
\citation{LOF}
\citation{COF}
\citation{KNN}
\citation{ABOD}
\citation{COPOD}
\citation{iForest}
\citation{iNNE}
\@writefile{lof}{\contentsline {figure}{\numberline {1.1}{\ignorespaces An example of outliers in a dataset.}}{4}{}\protected@file@percent }
\newlabel{fig: outlier concept}{{1.1}{4}}
\citation{LOF}
\citation{COPOD}
\citation{iForest}
\citation{OPTICS}
\citation{DBSCAN}
\citation{outlier in high}
\citation{feature_bagging}
\citation{HiCS}
\citation{statistical_selection}
\citation{Histopathologic}
\citation{Traffic}
\citation{Netflix}
\citation{DOBIN}
\citation{PINN}
\citation{Preservation}
\citation{UMAP}
\citation{t-SNE}
\@writefile{toc}{\contentsline {chapter}{\numberline {2}Fundamentals and Related Works}{6}{}\protected@file@percent }
\@writefile{lof}{\addvspace {10\p@ }}
\@writefile{lot}{\addvspace {10\p@ }}
\@writefile{toc}{\contentsline {section}{\numberline {2.1}Related Works}{6}{}\protected@file@percent }
\citation{LOF}
\@writefile{toc}{\contentsline {section}{\numberline {2.2}The Outlier Detection Algorithms}{7}{}\protected@file@percent }
\@writefile{toc}{\contentsline {subsection}{\numberline {2.2.1}LOF}{7}{}\protected@file@percent }
\@writefile{toc}{\contentsline {paragraph}{$k$-distance Concept}{7}{}\protected@file@percent }
\@writefile{toc}{\contentsline {paragraph}{Reachability Distance}{7}{}\protected@file@percent }
\@writefile{toc}{\contentsline {paragraph}{Local reachability density}{7}{}\protected@file@percent }
\citation{COF}
\@writefile{lof}{\contentsline {figure}{\numberline {2.1}{\ignorespaces Reachability distance}}{8}{}\protected@file@percent }
\newlabel{fig: reachability distance}{{2.1}{8}}
\@writefile{toc}{\contentsline {paragraph}{LOF score}{8}{}\protected@file@percent }
\@writefile{toc}{\contentsline {subsection}{\numberline {2.2.2}COF}{8}{}\protected@file@percent }
\@writefile{lof}{\contentsline {figure}{\numberline {2.2}{\ignorespaces The pitfall of LOF.The algorithm misclassifies point $A$ as an outlier, due to its low density. }}{9}{}\protected@file@percent }
\newlabel{fig: LOF pitfall}{{2.2}{9}}
\@writefile{toc}{\contentsline {paragraph}{Nearest Neighbor Concept}{9}{}\protected@file@percent }
\@writefile{toc}{\contentsline {paragraph}{Set Based Nearest Path (SBN-path)}{9}{}\protected@file@percent }
\@writefile{toc}{\contentsline {paragraph}{Set Based Nearest Trail {SBN-trail}}{9}{}\protected@file@percent }
\citation{KNN}
\citation{KNN_Outlier}
\@writefile{lof}{\contentsline {figure}{\numberline {2.3}{\ignorespaces  The concept of measuring COF score. Instead of measuring the density around the points, it measures the chain that can be build among the $k$-nearest neighbors. }}{10}{}\protected@file@percent }
\newlabel{fig: cof-concept}{{2.3}{10}}
\@writefile{toc}{\contentsline {paragraph}{Average Chaining Distance}{10}{}\protected@file@percent }
\@writefile{toc}{\contentsline {paragraph}{COF Score}{10}{}\protected@file@percent }
\@writefile{toc}{\contentsline {subsection}{\numberline {2.2.3}kNN}{10}{}\protected@file@percent }
\citation{ABOD}
\@writefile{lof}{\contentsline {figure}{\numberline {2.4}{\ignorespaces  The main concept of kNN algorithm as an OD-algorithm. }}{11}{}\protected@file@percent }
\newlabel{fig: knn-concept}{{2.4}{11}}
\@writefile{toc}{\contentsline {paragraph}{$k$-nearest neighbor distance}{11}{}\protected@file@percent }
\@writefile{toc}{\contentsline {paragraph}{Outlier Score based on k-nearest neighbor}{11}{}\protected@file@percent }
\@writefile{toc}{\contentsline {subsection}{\numberline {2.2.4}ABOD}{11}{}\protected@file@percent }
\citation{ABOD}
\@writefile{lof}{\contentsline {figure}{\numberline {2.5}{\ignorespaces Intuition for ABOD. The figure is taken from \cite  {ABOD}.}}{12}{}\protected@file@percent }
\newlabel{fig: ABOD intuition}{{2.5}{12}}
\@writefile{toc}{\contentsline {paragraph}{General Idea}{12}{}\protected@file@percent }
\@writefile{toc}{\contentsline {paragraph}{ABOF Score}{12}{}\protected@file@percent }
\citation{COPOD}
\citation{Sklar}
\@writefile{toc}{\contentsline {paragraph}{Approximate ABOF for FastABOD}{13}{}\protected@file@percent }
\@writefile{toc}{\contentsline {subsection}{\numberline {2.2.5}COPOD}{13}{}\protected@file@percent }
\@writefile{toc}{\contentsline {paragraph}{Copula Models}{13}{}\protected@file@percent }
\@writefile{toc}{\contentsline {paragraph}{Empirical Copula}{13}{}\protected@file@percent }
\citation{COPOD}
\citation{COPOD}
\@writefile{lof}{\contentsline {figure}{\numberline {2.6}{\ignorespaces Skewness correction from COPOD. The correction technique gives us more insight on the data distribution. The diagram is taken from \cite  {COPOD}.}}{14}{}\protected@file@percent }
\newlabel{fig: copod_concept}{{2.6}{14}}
\@writefile{toc}{\contentsline {paragraph}{Left and Right Tail Probabilities}{14}{}\protected@file@percent }
\@writefile{toc}{\contentsline {paragraph}{Skewness Correction}{14}{}\protected@file@percent }
\citation{iForest}
\@writefile{toc}{\contentsline {paragraph}{Minimize Tail Probabilities}{15}{}\protected@file@percent }
\@writefile{toc}{\contentsline {paragraph}{Outlier Score}{15}{}\protected@file@percent }
\citation{iForest Concept}
\citation{iForest Concept}
\@writefile{lof}{\contentsline {figure}{\numberline {2.7}{\ignorespaces The main concept of Isolation Forest. The algorithm creates a bunch of trees and each tree is partitioned based on certain value on any dimensions. Theoretically, the easier it is to isolate the data (see red square), the more likely it is an outlier. The figure is taken from \cite  {iForest Concept}.}}{16}{}\protected@file@percent }
\newlabel{fig: iforest_concept}{{2.7}{16}}
\@writefile{toc}{\contentsline {subsection}{\numberline {2.2.6}Isolation Forest}{16}{}\protected@file@percent }
\@writefile{toc}{\contentsline {paragraph}{Isolation Tree (iTree)}{16}{}\protected@file@percent }
\@writefile{toc}{\contentsline {paragraph}{Path Length}{16}{}\protected@file@percent }
\citation{iNNE}
\@writefile{toc}{\contentsline {paragraph}{Defining outlier score}{17}{}\protected@file@percent }
\@writefile{toc}{\contentsline {subsection}{\numberline {2.2.7}iNNE}{17}{}\protected@file@percent }
\@writefile{toc}{\contentsline {paragraph}{Hypersphere Concept}{17}{}\protected@file@percent }
\@writefile{toc}{\contentsline {paragraph}{Isolation Score}{17}{}\protected@file@percent }
\citation{iNNE}
\citation{iNNE}
\citation{PCA}
\citation{PCA_Name}
\@writefile{lof}{\contentsline {figure}{\numberline {2.8}{\ignorespaces The illustrative example on how iNNE works. The data points in the figure are the sample based on artificial dataset. The figure is taken from \cite  {iNNE}.}}{18}{}\protected@file@percent }
\newlabel{fig: inne-concept}{{2.8}{18}}
\@writefile{toc}{\contentsline {paragraph}{Anomaly Score}{18}{}\protected@file@percent }
\citation{PCA-concept}
\citation{PCA-concept}
\@writefile{lof}{\contentsline {figure}{\numberline {2.9}{\ignorespaces This is a dataset of students score in statistic and astrophysics class. With the help of PCA, we can extract the similar pattern with only one dimension. The figure is taken from \cite  {PCA-concept}.}}{19}{}\protected@file@percent }
\newlabel{fig: PCA example}{{2.9}{19}}
\@writefile{toc}{\contentsline {section}{\numberline {2.3}The Dimensionality Reduction Techniques}{19}{}\protected@file@percent }
\@writefile{toc}{\contentsline {subsection}{\numberline {2.3.1}PCA}{19}{}\protected@file@percent }
\@writefile{toc}{\contentsline {paragraph}{Covariance Matrix}{19}{}\protected@file@percent }
\citation{t-SNE}
\@writefile{toc}{\contentsline {paragraph}{Eigenvalues $\lambda $}{20}{}\protected@file@percent }
\@writefile{toc}{\contentsline {paragraph}{Eigenvectors $v$}{20}{}\protected@file@percent }
\@writefile{toc}{\contentsline {paragraph}{Finding reduced dimension}{20}{}\protected@file@percent }
\@writefile{toc}{\contentsline {subsection}{\numberline {2.3.2}t-SNE}{20}{}\protected@file@percent }
\@writefile{toc}{\contentsline {paragraph}{Stochastic Neighbor Embedding}{20}{}\protected@file@percent }
\citation{UMAP}
\@writefile{toc}{\contentsline {paragraph}{t-SNE}{21}{}\protected@file@percent }
\@writefile{toc}{\contentsline {subsection}{\numberline {2.3.3}UMAP}{21}{}\protected@file@percent }
\@writefile{toc}{\contentsline {paragraph}{$k$-neighbor graph}{22}{}\protected@file@percent }
\citation{TPE}
\citation{NP hard}
\@writefile{toc}{\contentsline {paragraph}{Cross Entropy}{23}{}\protected@file@percent }
\@writefile{toc}{\contentsline {section}{\numberline {2.4}Tree-structured Parzen Estimator Approach (TPE)}{23}{}\protected@file@percent }
\@writefile{toc}{\contentsline {paragraph}{Hyperparameter Optimization Function}{24}{}\protected@file@percent }
\@writefile{toc}{\contentsline {paragraph}{Expected Improvement Function}{24}{}\protected@file@percent }
\@writefile{toc}{\contentsline {paragraph}{Bayesian Optimization}{24}{}\protected@file@percent }
\@writefile{toc}{\contentsline {chapter}{\numberline {3}Measurement}{26}{}\protected@file@percent }
\@writefile{lof}{\addvspace {10\p@ }}
\@writefile{lot}{\addvspace {10\p@ }}
\@writefile{lot}{\contentsline {table}{\numberline {3.1}{\ignorespaces Confusion matrix for binary class. $\textbf  {P'}$ and $\textbf  {N'}$ represent the total number of positive class and the total number of negative class from the ground truth respectively.$\textbf  {P}$ and $\textbf  {N}$ represent the total number of positive class and the toal number of negative class from the prediction respectively.}}{26}{}\protected@file@percent }
\newlabel{tab:Confusion Matrix}{{3.1}{26}}
\citation{Modern Information Retrieval}
\@writefile{toc}{\contentsline {section}{\numberline {3.1}Accuracy}{27}{}\protected@file@percent }
\@writefile{lot}{\contentsline {table}{\numberline {3.2}{\ignorespaces This is an example of confusion matrix from a classifier. From this matrix we find, that the classifier has an accuracy of $92\%$.}}{27}{}\protected@file@percent }
\newlabel{tab:Accuracy example}{{3.2}{27}}
\@writefile{toc}{\contentsline {section}{\numberline {3.2}Precision}{27}{}\protected@file@percent }
\@writefile{lot}{\contentsline {table}{\numberline {3.3}{\ignorespaces Example for a pitfall in accuracy.}}{27}{}\protected@file@percent }
\newlabel{tab:Accuracy's Pitfall}{{3.3}{27}}
\citation{MCC}
\@writefile{toc}{\contentsline {section}{\numberline {3.3}Recall}{28}{}\protected@file@percent }
\@writefile{toc}{\contentsline {section}{\numberline {3.4}$F_{1}$-Score}{28}{}\protected@file@percent }
\@writefile{toc}{\contentsline {section}{\numberline {3.5}Matthews Correlation Coefficient (MCC)}{28}{}\protected@file@percent }
\citation{Cohen's Kappa}
\citation{LandisKoch}
\@writefile{toc}{\contentsline {section}{\numberline {3.6}Cohen's Kappa Coefficient ($\kappa $)}{29}{}\protected@file@percent }
\@writefile{lot}{\contentsline {table}{\numberline {3.4}{\ignorespaces Interpretability of Cohen's Kappa $\kappa $ based on \textit  {Landis and Koch, 1977}.}}{29}{}\protected@file@percent }
\newlabel{tab:Landis and Koch}{{3.4}{29}}
\citation{dataset}
\citation{cluto}
\@writefile{toc}{\contentsline {chapter}{\numberline {4}Experiment}{30}{}\protected@file@percent }
\@writefile{lof}{\addvspace {10\p@ }}
\@writefile{lot}{\addvspace {10\p@ }}
\@writefile{lof}{\contentsline {figure}{\numberline {4.1}{\ignorespaces The method in the experiment. Using tree-structured Parzen estimator approach, the hyperparameters of each algorithm will be optimized.}}{30}{}\protected@file@percent }
\newlabel{fig: experiment_pipeline}{{4.1}{30}}
\citation{PyOD}
\citation{anomatools}
\citation{scikit}
\citation{UMAP}
\citation{hyperopt}
\@writefile{lot}{\contentsline {table}{\numberline {4.1}{\ignorespaces The overview of the datasets in the experiment.}}{31}{}\protected@file@percent }
\newlabel{tab:dataset-info}{{4.1}{31}}
\@writefile{toc}{\contentsline {section}{\numberline {4.1}Objective Function}{31}{}\protected@file@percent }
\@writefile{lof}{\contentsline {figure}{\numberline {4.2}{\ignorespaces The objective function}}{31}{}\protected@file@percent }
\@writefile{lot}{\contentsline {table}{\numberline {4.2}{\ignorespaces An example where the model achieve a higher precision score but lower accuracy score.}}{32}{}\protected@file@percent }
\newlabel{tab:Accuracy lower}{{4.2}{32}}
\@writefile{lot}{\contentsline {table}{\numberline {4.3}{\ignorespaces The list of dataset that belongs to $\mathcal  {D}_{cd}$ and $\mathcal  {D}_{\neg cd}$.}}{33}{}\protected@file@percent }
\newlabel{tab:cd dataset}{{4.3}{33}}
\@writefile{toc}{\contentsline {section}{\numberline {4.2}Experiment Result}{33}{}\protected@file@percent }
\@writefile{toc}{\contentsline {subsection}{\numberline {4.2.1}Result based on $\mathcal  {D}_{cd}$}{33}{}\protected@file@percent }
\newlabel{results in Dcd}{{4.2.1}{33}}
\@writefile{lot}{\contentsline {table}{\numberline {4.4}{\ignorespaces Average score based on the objective function.}}{33}{}\protected@file@percent }
\newlabel{tab:Overall Objective Score}{{4.4}{33}}
\@writefile{lot}{\contentsline {table}{\numberline {4.5}{\ignorespaces Average score based on the accuracy score $\mathcal  {D}_{cd}$.}}{34}{}\protected@file@percent }
\newlabel{tab:Overall Accuracy Score}{{4.5}{34}}
\@writefile{lot}{\contentsline {table}{\numberline {4.6}{\ignorespaces Average score based on the precision score $\mathcal  {D}_{cd}$.}}{34}{}\protected@file@percent }
\newlabel{tab:Overall Precision Score}{{4.6}{34}}
\@writefile{lot}{\contentsline {table}{\numberline {4.7}{\ignorespaces Average score based on the MCC score $\mathcal  {D}_{cd}$.}}{34}{}\protected@file@percent }
\newlabel{tab:Overall MCC Score}{{4.7}{34}}
\@writefile{lot}{\contentsline {table}{\numberline {4.8}{\ignorespaces Average score based on the recall score $\mathcal  {D}_{cd}$.}}{35}{}\protected@file@percent }
\newlabel{tab:Overall Recall Score}{{4.8}{35}}
\@writefile{lot}{\contentsline {table}{\numberline {4.9}{\ignorespaces Average score based on the $F_1$-score $\mathcal  {D}_{cd}$.}}{35}{}\protected@file@percent }
\newlabel{tab:Overall F1 Score}{{4.9}{35}}
\@writefile{lot}{\contentsline {table}{\numberline {4.10}{\ignorespaces Average score based on the Cohen's Kappa score $\mathcal  {D}_{cd}$.}}{35}{}\protected@file@percent }
\newlabel{tab:Overall Cohen's Kappa Score}{{4.10}{35}}
\@writefile{toc}{\contentsline {subsection}{\numberline {4.2.2}Result based on $\mathcal  {D}_{\neg cd}$}{36}{}\protected@file@percent }
\@writefile{lot}{\contentsline {table}{\numberline {4.11}{\ignorespaces Average score based on the objective function}}{36}{}\protected@file@percent }
\newlabel{Overall ncd total score}{{4.11}{36}}
\@writefile{lot}{\contentsline {table}{\numberline {4.12}{\ignorespaces Average score based on the accuracy score $\mathcal  {D}_{\neg cd}$.}}{36}{}\protected@file@percent }
\newlabel{accuracy ncd}{{4.12}{36}}
\@writefile{toc}{\contentsline {section}{\numberline {4.3}Low Scores in Overall, Accuracy Score is Not Necessary}{36}{}\protected@file@percent }
\@writefile{lot}{\contentsline {table}{\numberline {4.13}{\ignorespaces Average score based on the precision score $\mathcal  {D}_{\neg cd}$.}}{37}{}\protected@file@percent }
\newlabel{precision ncd}{{4.13}{37}}
\@writefile{lot}{\contentsline {table}{\numberline {4.14}{\ignorespaces Average score based on the MCC score $\mathcal  {D}_{\neg cd}$.}}{37}{}\protected@file@percent }
\newlabel{MCC ncd}{{4.14}{37}}
\@writefile{lot}{\contentsline {table}{\numberline {4.15}{\ignorespaces Average score based on the recall score $\mathcal  {D}_{\neg cd}$.}}{37}{}\protected@file@percent }
\newlabel{recall ncd}{{4.15}{37}}
\@writefile{lot}{\contentsline {table}{\numberline {4.16}{\ignorespaces Average score based on $F_1$-score $\mathcal  {D}_{\neg cd}$.}}{38}{}\protected@file@percent }
\newlabel{f1 ncd}{{4.16}{38}}
\@writefile{lot}{\contentsline {table}{\numberline {4.17}{\ignorespaces Average score based on the Cohen's Kappa score $\mathcal  {D}_{\neg cd}$.}}{38}{}\protected@file@percent }
\newlabel{cohen_kappa ncd}{{4.17}{38}}
\@writefile{toc}{\contentsline {section}{\numberline {4.4}High Correlation between The Metrics and The Objective Function Score}{38}{}\protected@file@percent }
\@writefile{toc}{\contentsline {section}{\numberline {4.5}The Datasets in $\mathcal  {D}_{\neg cd}$}{38}{}\protected@file@percent }
\@writefile{lot}{\contentsline {table}{\numberline {4.18}{\ignorespaces The correlation table between the used metric scores and the objective function in $\mathcal  {D}_{cd}$.}}{39}{}\protected@file@percent }
\newlabel{corellation on Dcd}{{4.18}{39}}
\@writefile{lot}{\contentsline {table}{\numberline {4.19}{\ignorespaces The correlation table between the used metric scores and the objective function in $\mathcal  {D}_{\neg cd}$.}}{39}{}\protected@file@percent }
\newlabel{corellation on D not cd}{{4.19}{39}}
\@writefile{toc}{\contentsline {section}{\numberline {4.6}Global Structure over Local Structure}{39}{}\protected@file@percent }
\citation{ABOD}
\@writefile{toc}{\contentsline {section}{\numberline {4.7}The relation between LOF and UMAP}{40}{}\protected@file@percent }
\@writefile{toc}{\contentsline {section}{\numberline {4.8}The relation between COPOD and t-SNE}{40}{}\protected@file@percent }
\@writefile{toc}{\contentsline {section}{\numberline {4.9}Applicability of t-SNE in other OD-algorithms}{40}{}\protected@file@percent }
\@writefile{toc}{\contentsline {section}{\numberline {4.10}ABOD may still suffer from the curse of the dimensionality}{40}{}\protected@file@percent }
\@writefile{lot}{\contentsline {table}{\numberline {4.20}{\ignorespaces Some cases where t-SNE helps increasing the performance of OD-algorithms besides COPOD. }}{41}{}\protected@file@percent }
\newlabel{tsne useful}{{4.20}{41}}
\@writefile{toc}{\contentsline {chapter}{\numberline {5}Conclusion and Further Studies}{42}{}\protected@file@percent }
\@writefile{lof}{\addvspace {10\p@ }}
\@writefile{lot}{\addvspace {10\p@ }}
\bibstyle{plain}
\bibdata{dmmdbstmpl}
\bibcite{outlier in high}{1}
\bibcite{iForest Concept}{2}
\bibcite{KNN_Outlier}{3}
\bibcite{OPTICS}{4}
\bibcite{iNNE}{5}
\bibcite{Bellman}{6}
\bibcite{TPE}{7}
\bibcite{hyperopt}{8}
\bibcite{LOF}{9}
\bibcite{Cohen's Kappa}{10}
\@writefile{toc}{\contentsline {chapter}{Bibliography}{44}{}\protected@file@percent }
\bibcite{MDS}{11}
\bibcite{DBSCAN}{12}
\bibcite{Histopathologic}{13}
\bibcite{KNN}{14}
\bibcite{Hawkins}{15}
\bibcite{PCA_Name}{16}
\bibcite{Traffic}{17}
\bibcite{NP hard}{18}
\bibcite{DOBIN}{19}
\bibcite{cluto}{20}
\bibcite{HiCS}{21}
\bibcite{ABOD}{22}
\bibcite{LandisKoch}{23}
\bibcite{feature_bagging}{24}
\bibcite{COPOD}{25}
\bibcite{iForest}{26}
\bibcite{MCC}{27}
\bibcite{UMAP}{28}
\bibcite{statistical_selection}{29}
\bibcite{Netflix}{30}
\bibcite{Preservation}{31}
\bibcite{PCA}{32}
\bibcite{scikit}{33}
\bibcite{dataset}{34}
\bibcite{Kernel Trick}{35}
\bibcite{Modern Information Retrieval}{36}
\bibcite{Sklar}{37}
\bibcite{Gitlab}{38}
\bibcite{COF}{39}
\bibcite{Isomap}{40}
\bibcite{t-SNE}{41}
\bibcite{anomatools}{42}
\bibcite{PINN}{43}
\bibcite{PyOD}{44}
\bibcite{PCA-concept}{45}
\citation{Gitlab}
\@writefile{toc}{\contentsline {chapter}{\numberline {A}Experiment}{48}{}\protected@file@percent }
\@writefile{lof}{\addvspace {10\p@ }}
\@writefile{lot}{\addvspace {10\p@ }}
\@writefile{toc}{\contentsline {section}{\numberline {A.1}Experiment Result}{48}{}\protected@file@percent }
\@writefile{lot}{\contentsline {table}{\numberline {A.1}{\ignorespaces None-LOF}}{48}{}\protected@file@percent }
\newlabel{None-LOF}{{A.1}{48}}
\@writefile{lot}{\contentsline {table}{\numberline {A.2}{\ignorespaces None-COF}}{49}{}\protected@file@percent }
\newlabel{None-COF}{{A.2}{49}}
\@writefile{lot}{\contentsline {table}{\numberline {A.3}{\ignorespaces None-KNN}}{49}{}\protected@file@percent }
\newlabel{None-KNN}{{A.3}{49}}
\@writefile{lot}{\contentsline {table}{\numberline {A.4}{\ignorespaces None - Isolation Forest}}{50}{}\protected@file@percent }
\newlabel{None - Isolation Forest}{{A.4}{50}}
\@writefile{lot}{\contentsline {table}{\numberline {A.5}{\ignorespaces None-iNNE}}{50}{}\protected@file@percent }
\newlabel{None-iNNE}{{A.5}{50}}
\@writefile{lot}{\contentsline {table}{\numberline {A.6}{\ignorespaces None-ABOD}}{51}{}\protected@file@percent }
\newlabel{None-ABOD}{{A.6}{51}}
\@writefile{lot}{\contentsline {table}{\numberline {A.7}{\ignorespaces None-COPOD}}{51}{}\protected@file@percent }
\newlabel{None-COPOD}{{A.7}{51}}
\@writefile{lot}{\contentsline {table}{\numberline {A.8}{\ignorespaces PCA-LOF}}{52}{}\protected@file@percent }
\newlabel{PCA-LOF}{{A.8}{52}}
\@writefile{lot}{\contentsline {table}{\numberline {A.9}{\ignorespaces PCA-COF}}{52}{}\protected@file@percent }
\newlabel{PCA-COF}{{A.9}{52}}
\@writefile{lot}{\contentsline {table}{\numberline {A.10}{\ignorespaces PCA-KNN}}{53}{}\protected@file@percent }
\newlabel{PCA-KNN}{{A.10}{53}}
\@writefile{lot}{\contentsline {table}{\numberline {A.11}{\ignorespaces PCA-Isolation Forest}}{53}{}\protected@file@percent }
\newlabel{PCA-Isolation Forest}{{A.11}{53}}
\@writefile{lot}{\contentsline {table}{\numberline {A.12}{\ignorespaces PCA-iNNE}}{54}{}\protected@file@percent }
\newlabel{PCA-iNNE}{{A.12}{54}}
\@writefile{lot}{\contentsline {table}{\numberline {A.13}{\ignorespaces PCA-ABOD}}{54}{}\protected@file@percent }
\newlabel{PCA-ABOD}{{A.13}{54}}
\@writefile{lot}{\contentsline {table}{\numberline {A.14}{\ignorespaces PCA-COPOD}}{55}{}\protected@file@percent }
\newlabel{PCA-COPOD}{{A.14}{55}}
\@writefile{lot}{\contentsline {table}{\numberline {A.15}{\ignorespaces t-SNE-LOF}}{55}{}\protected@file@percent }
\newlabel{t-SNE-LOF}{{A.15}{55}}
\@writefile{lot}{\contentsline {table}{\numberline {A.16}{\ignorespaces t-SNE-COF}}{56}{}\protected@file@percent }
\newlabel{t-SNE-COF}{{A.16}{56}}
\@writefile{lot}{\contentsline {table}{\numberline {A.17}{\ignorespaces t-SNE-KNN}}{56}{}\protected@file@percent }
\newlabel{t-SNE-KNN}{{A.17}{56}}
\@writefile{lot}{\contentsline {table}{\numberline {A.18}{\ignorespaces t-SNE-Isolation Forest}}{56}{}\protected@file@percent }
\newlabel{t-SNE-Isolation Forest}{{A.18}{56}}
\@writefile{lot}{\contentsline {table}{\numberline {A.19}{\ignorespaces t-SNE-iNNE}}{57}{}\protected@file@percent }
\newlabel{t-SNE-iNNE}{{A.19}{57}}
\@writefile{lot}{\contentsline {table}{\numberline {A.20}{\ignorespaces t-SNE-ABOD}}{57}{}\protected@file@percent }
\newlabel{t-SNE-ABOD}{{A.20}{57}}
\@writefile{lot}{\contentsline {table}{\numberline {A.21}{\ignorespaces t-SNE-COPOD}}{57}{}\protected@file@percent }
\newlabel{t-SNE-COPOD}{{A.21}{57}}
\@writefile{lot}{\contentsline {table}{\numberline {A.22}{\ignorespaces UMAP-LOF}}{58}{}\protected@file@percent }
\newlabel{UMAP-LOF}{{A.22}{58}}
\@writefile{lot}{\contentsline {table}{\numberline {A.23}{\ignorespaces UMAP-COF}}{58}{}\protected@file@percent }
\newlabel{UMAP-COF}{{A.23}{58}}
\@writefile{lot}{\contentsline {table}{\numberline {A.24}{\ignorespaces UMAP-KNN}}{58}{}\protected@file@percent }
\newlabel{UMAP-KNN}{{A.24}{58}}
\@writefile{lot}{\contentsline {table}{\numberline {A.25}{\ignorespaces UMAP-Isolation Forest}}{59}{}\protected@file@percent }
\newlabel{UMAP-Isolation Forest}{{A.25}{59}}
\@writefile{lot}{\contentsline {table}{\numberline {A.26}{\ignorespaces UMAP-iNNE}}{59}{}\protected@file@percent }
\newlabel{UMAP-iNNE}{{A.26}{59}}
\@writefile{lot}{\contentsline {table}{\numberline {A.27}{\ignorespaces UMAP-ABOD}}{59}{}\protected@file@percent }
\newlabel{UMAP-ABOD}{{A.27}{59}}
\@writefile{toc}{\contentsline {section}{\numberline {A.2}Hyperparameter Tuning}{59}{}\protected@file@percent }
\@writefile{toc}{\contentsline {subsection}{\numberline {A.2.1}\tt  {n\_components}}{59}{}\protected@file@percent }
\@writefile{lot}{\contentsline {table}{\numberline {A.28}{\ignorespaces UMAP-COPOD}}{60}{}\protected@file@percent }
\newlabel{UMAP-COPOD}{{A.28}{60}}
\gdef \@abspage@last{63}
