This is BibTeX, Version 0.99d (TeX Live 2019/Debian)
Capacity: max_strings=200000, hash_size=200000, hash_prime=170003
The top-level auxiliary file: dmmdbstmpl.aux
The style file: plain.bst
Database file #1: dmmdbstmpl.bib
You've used 2 entries,
            2118 wiz_defined-function locations,
            511 strings with 4480 characters,
and the built_in function-call counts, 1010 in all, are:
= -- 97
> -- 46
< -- 2
+ -- 19
- -- 16
* -- 66
:= -- 152
add.period$ -- 6
call.type$ -- 2
change.case$ -- 14
chr.to.int$ -- 0
cite$ -- 2
duplicate$ -- 44
empty$ -- 80
format.name$ -- 16
if$ -- 223
int.to.chr$ -- 0
int.to.str$ -- 2
missing$ -- 2
newline$ -- 13
num.names$ -- 4
pop$ -- 20
preamble$ -- 1
purify$ -- 12
quote$ -- 0
skip$ -- 37
stack$ -- 0
substring$ -- 67
swap$ -- 20
text.length$ -- 2
text.prefix$ -- 0
top$ -- 0
type$ -- 8
warning$ -- 0
while$ -- 10
width$ -- 3
write$ -- 24
