\relax 
\providecommand \oddpage@label [2]{}
\@writefile{toc}{\contentsline {section}{\numberline {1}Outlier Detection Algorithms without Dimensionality Reduction}{1}\protected@file@percent }
\@writefile{toc}{\contentsline {subsection}{\numberline {1.1}ABOD}{1}\protected@file@percent }
\@writefile{toc}{\contentsline {subsection}{\numberline {1.2}COF}{1}\protected@file@percent }
\@writefile{toc}{\contentsline {subsection}{\numberline {1.3}COPOD}{2}\protected@file@percent }
\@writefile{toc}{\contentsline {subsection}{\numberline {1.4}Isolation Forest}{3}\protected@file@percent }
\@writefile{toc}{\contentsline {subsection}{\numberline {1.5}KNN}{4}\protected@file@percent }
\@writefile{toc}{\contentsline {subsection}{\numberline {1.6}LOF}{5}\protected@file@percent }
\@writefile{toc}{\contentsline {subsection}{\numberline {1.7}iNNE}{5}\protected@file@percent }
\@writefile{toc}{\contentsline {section}{\numberline {2}Outlier Detection Algorithms with PCA}{6}\protected@file@percent }
\@writefile{toc}{\contentsline {subsection}{\numberline {2.1}ABOD}{6}\protected@file@percent }
\@writefile{toc}{\contentsline {subsection}{\numberline {2.2}COF}{7}\protected@file@percent }
\@writefile{toc}{\contentsline {subsection}{\numberline {2.3}COPOD}{7}\protected@file@percent }
\@writefile{toc}{\contentsline {subsection}{\numberline {2.4}Isolation Forest}{8}\protected@file@percent }
\@writefile{toc}{\contentsline {subsection}{\numberline {2.5}KNN}{8}\protected@file@percent }
\@writefile{toc}{\contentsline {subsection}{\numberline {2.6}LOF}{9}\protected@file@percent }
\@writefile{toc}{\contentsline {subsection}{\numberline {2.7}iNNE}{10}\protected@file@percent }
\@writefile{toc}{\contentsline {section}{\numberline {3}Outlier Detection Algorithms with t-SNE}{10}\protected@file@percent }
\@writefile{toc}{\contentsline {subsection}{\numberline {3.1}ABOD}{10}\protected@file@percent }
\@writefile{toc}{\contentsline {subsection}{\numberline {3.2}COF}{10}\protected@file@percent }
\@writefile{toc}{\contentsline {subsection}{\numberline {3.3}COPOD}{11}\protected@file@percent }
\@writefile{toc}{\contentsline {subsection}{\numberline {3.4}Isolation Forest}{11}\protected@file@percent }
\@writefile{toc}{\contentsline {subsection}{\numberline {3.5}KNN}{11}\protected@file@percent }
\@writefile{toc}{\contentsline {subsection}{\numberline {3.6}LOF}{12}\protected@file@percent }
\@writefile{toc}{\contentsline {subsection}{\numberline {3.7}iNNE}{12}\protected@file@percent }
\@writefile{toc}{\contentsline {section}{\numberline {4}Outlier Detection Algorithms with UMAP}{12}\protected@file@percent }
\@writefile{toc}{\contentsline {subsection}{\numberline {4.1}ABOD}{12}\protected@file@percent }
\@writefile{toc}{\contentsline {subsection}{\numberline {4.2}COF}{13}\protected@file@percent }
\@writefile{toc}{\contentsline {subsection}{\numberline {4.3}COPOD}{13}\protected@file@percent }
\@writefile{toc}{\contentsline {subsection}{\numberline {4.4}Isolation Forest}{13}\protected@file@percent }
\@writefile{toc}{\contentsline {subsection}{\numberline {4.5}KNN}{14}\protected@file@percent }
\@writefile{toc}{\contentsline {subsection}{\numberline {4.6}LOF}{14}\protected@file@percent }
\@writefile{toc}{\contentsline {subsection}{\numberline {4.7}iNNE}{15}\protected@file@percent }
