Dataset,F1-Score-None,F1-Score-PCA,F1-Score-t-SNE,F1-Score-UMAP
02wbc,0.5085,0.4068,0.5085,0.5085
03glass,0.0645,0.0645,0.129,0.129
04vowels,0.0306,0.0204,0.0918,0.0408
05cardio,0.5348,0.4568,0.624,0.6908
11pima,0.2841,0.2551,0.3072,0.3304
16ionosphere,0.3851,0.4348,0.1988,0.0994
23pendigits,0.2017,0.1637,0.3582,0.3559
24ecoli,0.2029,0.2609,0.6667,0.6957
25wine,0.5217,0.1739,0.8696,0.8696
26vertebral,0.0,0.0,0.2222,0.1481
27yeast,0.084,0.084,0.084,0.084
AVERAGE,0.25620000000000004,0.21100000000000002,0.36910000000000004,0.3593
