Detector,F1-Score-None,F1-Score-PCA,F1-Score-t-SNE,F1-Score-UMAP
ABOD,0.30820000000000003,0.32730000000000004,0.229,0.26580000000000004
COF,0.3109,0.321,0.2411,0.28150000000000003
COPOD,0.25620000000000004,0.21100000000000002,0.36910000000000004,0.3593
IForest,0.3108,0.3422,0.30720000000000003,0.3468
iNNE,0.30720000000000003,0.3286,0.1724,0.1763
LOF,0.3299,0.3569,0.3829,0.3829
KNN,0.35850000000000004,0.38170000000000004,0.3855,0.3876
AVERAGE,0.31170000000000003,0.3241,0.2982,0.3143
