Dataset,F1-Score-None,F1-Score-PCA,F1-Score-t-SNE,F1-Score-UMAP
02wbc,0.5085,0.5085,0.3729,0.4407
03glass,0.129,0.1935,0.1935,0.129
04vowels,0.1837,0.398,0.1122,0.0918
05cardio,0.585,0.6908,0.507,0.7521
11pima,0.2899,0.3188,0.2933,0.3246
16ionosphere,0.4348,0.4348,0.2609,0.1491
23pendigits,0.3179,0.3416,0.3198,0.3559
24ecoli,0.2029,0.2353,0.3478,0.6567
25wine,0.6087,0.5217,0.6957,0.6087
26vertebral,0.0741,0.037,0.1923,0.2222
27yeast,0.084,0.084,0.084,0.084
AVERAGE,0.3108,0.3422,0.30720000000000003,0.3468
