Dataset,F1-Score-None,F1-Score-PCA,F1-Score-t-SNE,F1-Score-UMAP
02wbc,0.5085,0.4068,0.5085,0.5085
03glass,0.0645,0.0645,0.129,0.129
04vowels,0.0306,0.0204,0.0918,0.0408
05cardio,0.5348,0.4568,0.624,0.6908
11pima,0.2841,0.2551,0.3072,0.3304
16ionosphere,0.3851,0.4348,0.1988,0.0994
23pendigits,0.2017,0.1637,0.3582,0.3559
24ecoli,0.2029,0.2609,0.6667,0.6957
25wine,0.5217,0.1739,0.8696,0.8696
26vertebral,0.0,0.0,0.2222,0.1481
27yeast,0.084,0.084,0.084,0.084
29SPECTF_test,0.199,0.199,0.199,0.199
29SPECTF_train,0.3333,0.1667,0.2083,0.3333
30cluto-t4-8k,0.4974,0.2941,0.1074,0.3491
30cluto-t5-8k,0.3482,0.1731,0.1034,0.1802
30cluto-t7-10k,0.2701,0.1339,0.1362,0.1239
30cluto-t8-8k,0.2066,0.1425,0.0873,0.0944
AVERAGE,0.27490000000000003,0.2018,0.2883,0.3078
