Dataset,MCC-None,MCC-PCA,MCC-t-SNE,MCC-UMAP
02wbc,0.495,0.495,0.303,0.495
03glass,0.159,0.159,0.3124,0.3124
04vowels,0.5021,0.5272,0.4142,0.3514
05cardio,0.5091,0.6079,0.4473,0.5709
11pima,0.174,0.174,0.2104,0.1558
16ionosphere,0.4447,0.4447,0.1276,-0.1301
23pendigits,0.454,0.454,0.441,0.4377
24ecoli,0.1117,0.2733,0.6286,0.6609
25wine,0.8659,0.8659,0.8659,0.8659
26vertebral,-0.126,-0.126,0.084,0.042
27yeast,0.1991,0.2001,0.1991,0.1991
AVERAGE,0.34440000000000004,0.3705,0.3667,0.36010000000000003
