Dataset,MCC-None,MCC-PCA,MCC-t-SNE,MCC-UMAP
02wbc,0.495,0.495,0.0725,-0.0427
03glass,0.159,0.2357,0.3124,0.389
04vowels,0.5523,0.5523,0.3514,0.3263
05cardio,0.1261,0.1817,0.0458,0.2311
11pima,0.2195,0.2104,0.1194,0.1103
16ionosphere,0.4447,0.4447,0.3853,0.3853
23pendigits,0.0404,0.0436,0.0567,0.0436
24ecoli,0.0471,0.0471,0.144,0.144
25wine,0.8659,0.8659,0.3844,0.8659
26vertebral,0.0,0.0,0.168,0.168
27yeast,0.1991,0.1991,0.2001,-0.0221
29SPECTF_test,0.0993,0.0993,0.0993,0.0993
29SPECTF_train,0.3333,0.3333,0.1667,0.25
30cluto-t4-8k,0.8189,0.4503,0.3652,0.3028
30cluto-t5-8k,0.8123,0.6735,0.301,0.3034
30cluto-t7-10k,0.8329,0.038,0.3145,0.2355
30cluto-t8-8k,0.5984,0.1581,0.1391,0.0967
AVERAGE,0.39080000000000004,0.2958,0.21330000000000002,0.2286
