Dataset,MCC-None,MCC-PCA,MCC-t-SNE,MCC-UMAP
02wbc,0.495,0.495,0.2646,0.4566
03glass,0.159,0.159,0.3124,0.0824
04vowels,0.4393,0.3891,0.4519,0.3891
05cardio,0.4226,0.5029,0.3608,0.435
11pima,0.1558,0.2013,0.2104,0.1922
16ionosphere,0.4447,0.4447,0.1276,0.3258
23pendigits,0.112,0.086,0.3726,0.3303
24ecoli,0.1117,0.2733,0.6609,0.6609
25wine,0.8659,0.8659,0.8659,0.8659
26vertebral,-0.042,0.084,0.168,0.084
27yeast,0.2001,0.1991,0.1991,0.1991
AVERAGE,0.3058,0.33640000000000003,0.36310000000000003,0.36560000000000004
