Dataset,MCC-None,MCC-PCA,MCC-t-SNE,MCC-UMAP
02wbc,0.495,0.3798,0.495,0.495
03glass,0.0057,0.0057,0.0824,0.0824
04vowels,-0.0253,-0.0378,0.0501,-0.0127
05cardio,0.4844,0.3979,0.5832,0.6574
11pima,0.2013,0.1558,0.2377,0.274
16ionosphere,0.3654,0.4447,0.0681,-0.0905
23pendigits,0.226,0.1739,0.441,0.4377
24ecoli,0.1117,0.1763,0.6286,0.6609
25wine,0.4807,0.0956,0.8659,0.8659
26vertebral,-0.126,-0.126,0.126,0.042
27yeast,0.1991,0.1991,0.1991,0.1991
29SPECTF_test,0.0993,0.0993,0.0993,0.0993
29SPECTF_train,0.3333,0.0,0.0833,0.3333
30cluto-t4-8k,0.4432,0.2178,0.0108,0.2787
30cluto-t5-8k,0.2666,0.0637,-0.017,0.072
30cluto-t7-10k,0.2009,0.0504,0.0528,0.0393
30cluto-t8-8k,0.1772,0.101,0.0354,0.0438
AVERAGE,0.23170000000000002,0.14100000000000001,0.23770000000000002,0.2634
