Dataset,MCC-None,MCC-PCA,MCC-t-SNE,MCC-UMAP
02wbc,0.4566,0.495,0.303,0.1494
03glass,0.159,0.159,0.2357,0.3124
04vowels,0.5398,0.4644,0.1631,0.3263
05cardio,0.2805,0.2867,0.1817,0.0334
11pima,0.1922,0.1922,0.1376,0.1831
16ionosphere,0.4447,0.4447,0.0879,0.4447
23pendigits,0.073,0.2326,0.0241,0.0632
24ecoli,-0.0175,0.1117,0.2086,0.0471
25wine,0.8659,0.8659,0.2881,0.7696
26vertebral,-0.084,-0.084,0.21,0.084
27yeast,0.2001,0.2001,0.0664,0.1106
AVERAGE,0.2828,0.3062,0.1733,0.22940000000000002
