Dataset,Precision-None,Precision-PCA,Precision-t-SNE,Precision-UMAP
02wbc,0.3684,0.3947,0.2632,0.1579
03glass,0.1364,0.1364,0.1818,0.2273
04vowels,0.3288,0.2877,0.1233,0.2123
05cardio,0.3443,0.3497,0.2568,0.1257
11pima,0.6234,0.6234,0.5455,0.6104
16ionosphere,1.0,1.0,0.4857,1.0
23pendigits,0.0553,0.1266,0.0335,0.0509
24ecoli,0.0882,0.2059,0.2941,0.1471
25wine,0.7692,0.7692,0.3077,0.6923
26vertebral,0.0417,0.0417,0.3333,0.2083
27yeast,0.0442,0.0442,0.0175,0.0263
29SPECTF_test,1.0,1.0,1.0,1.0
29SPECTF_train,1.0,1.0,0.875,1.0
30cluto-t4-8k,0.6888,0.4075,0.1213,0.2
30cluto-t5-8k,0.9875,0.715,0.2388,0.29
30cluto-t7-10k,0.674,0.112,0.149,0.119
30cluto-t8-8k,0.3788,0.0963,0.0738,0.0738
AVERAGE,0.5017,0.43,0.3118,0.3613
