Dataset,Precision-None,Precision-PCA,Precision-t-SNE,Precision-UMAP
02wbc,0.3947,0.3158,0.3947,0.3947
03glass,0.0455,0.0455,0.0909,0.0909
04vowels,0.0205,0.0137,0.0616,0.0274
05cardio,0.5246,0.4481,0.612,0.6776
11pima,0.6364,0.5714,0.6883,0.7403
16ionosphere,0.8857,1.0,0.4571,0.2286
23pendigits,0.1237,0.1004,0.2198,0.2183
24ecoli,0.2059,0.2647,0.6765,0.7059
25wine,0.4615,0.1538,0.7692,0.7692
26vertebral,0.0,0.0,0.25,0.1667
27yeast,0.0439,0.0439,0.0439,0.0439
29SPECTF_test,1.0,1.0,1.0,1.0
29SPECTF_train,1.0,0.5,0.625,1.0
30cluto-t4-8k,0.4863,0.2875,0.105,0.3413
30cluto-t5-8k,0.425,0.2113,0.1263,0.22
30cluto-t7-10k,0.242,0.12,0.122,0.111
30cluto-t8-8k,0.145,0.1,0.0613,0.0663
AVERAGE,0.3906,0.3045,0.3708,0.4001
