Dataset,Precision-None,Precision-PCA,Precision-t-SNE,Precision-UMAP
02wbc,0.3947,0.3947,0.2632,0.3947
03glass,0.1364,0.1364,0.2273,0.2273
04vowels,0.3082,0.3219,0.2603,0.226
05cardio,0.5464,0.6339,0.4918,0.6011
11pima,0.5974,0.5974,0.6494,0.5714
16ionosphere,1.0,1.0,0.5429,0.1714
23pendigits,0.2256,0.2256,0.2198,0.2183
24ecoli,0.2059,0.3529,0.6765,0.7059
25wine,0.7692,0.7692,0.7692,0.7692
26vertebral,0.0,0.0,0.2083,0.1667
27yeast,0.0439,0.0442,0.0439,0.0439
29SPECTF_test,1.0,1.0,1.0,1.0
29SPECTF_train,1.0,1.0,1.0,1.0
30cluto-t4-8k,0.8725,0.52,0.185,0.44
30cluto-t5-8k,1.0,0.855,0.3113,0.4238
30cluto-t7-10k,0.783,0.156,0.262,0.245
30cluto-t8-8k,0.3913,0.1575,0.0888,0.095
AVERAGE,0.5456,0.4803,0.42350000000000004,0.4294
