Dataset,Recall-None,Recall-PCA,Recall-t-SNE,Recall-UMAP
02wbc,0.7143,0.7143,0.5238,0.619
03glass,0.2222,0.3333,0.3333,0.2222
04vowels,0.36,0.78,0.22,0.18
05cardio,0.5966,0.7045,0.517,0.767
11pima,0.1866,0.2052,0.1866,0.209
16ionosphere,0.2778,0.2778,0.1667,0.0952
23pendigits,0.859,0.9231,0.859,0.9615
24ecoli,0.2,0.2286,0.3429,0.6286
25wine,0.7,0.6,0.8,0.7
26vertebral,0.0667,0.0333,0.1667,0.2
27yeast,1.0,1.0,1.0,1.0
AVERAGE,0.4712,0.5273,0.4651,0.5075000000000001
