Dataset,Recall-None,Recall-PCA,Recall-t-SNE,Recall-UMAP
02wbc,0.6667,0.7143,0.4762,0.2857
03glass,0.3333,0.3333,0.4444,0.5556
04vowels,0.96,0.84,0.36,0.62
05cardio,0.358,0.3636,0.267,0.1307
11pima,0.1791,0.1791,0.1567,0.1754
16ionosphere,0.2778,0.2778,0.1349,0.2778
23pendigits,0.2436,0.5577,0.1474,0.2244
24ecoli,0.0857,0.2,0.2857,0.1429
25wine,1.0,1.0,0.4,0.9
26vertebral,0.0333,0.0333,0.2667,0.1667
27yeast,1.0,1.0,0.4,0.6
29SPECTF_test,0.1105,0.1105,0.1105,0.1105
29SPECTF_train,0.2,0.2,0.175,0.2
30cluto-t4-8k,0.7212,0.4267,0.127,0.2094
30cluto-t5-8k,0.6852,0.4961,0.1657,0.2012
30cluto-t7-10k,0.851,0.1414,0.1881,0.1503
30cluto-t8-8k,0.9381,0.2384,0.1827,0.1827
AVERAGE,0.5084000000000001,0.4184,0.25220000000000004,0.302
