Dataset,Total-None,Total-PCA,Total-t-SNE,Total-UMAP
02wbc,3.5064,3.5064,2.7542,3.1303
03glass,1.4721,1.8478,1.8478,1.4721
04vowels,1.8598,3.1563,1.4276,1.3042
05cardio,3.7538,4.3269,3.3315,4.6587
11pima,2.176,2.3814,2.2485,2.4225
16ionosphere,3.2283,3.2283,1.9799,1.1774
23pendigits,2.9656,3.1281,2.9733,3.2256
24ecoli,1.6685,1.8502,2.4562,4.1427
25wine,3.9255,3.4546,4.3965,3.9255
26vertebral,0.9321,0.728,1.6063,1.7482
27yeast,2.3078,2.3078,2.3078,2.3078
AVERAGE,2.5269,2.7196000000000002,2.4845,2.6832000000000003
