Dataset,Total-None,Total-PCA,Total-t-SNE,Total-UMAP
02wbc,3.5064,2.9423,3.5064,3.5064
03glass,1.0964,1.0964,1.4721,1.4721
04vowels,0.9337,0.872,1.3042,0.9955
05cardio,3.4823,3.06,3.9649,4.3269
11pima,2.1349,1.9295,2.2992,2.4635
16ionosphere,2.8716,3.2283,1.534,0.8207
23pendigits,2.1693,1.9093,3.2418,3.2256
24ecoli,1.6685,1.9836,4.189,4.3465
25wine,3.4546,1.5706,5.3385,5.3385
26vertebral,0.524,0.524,1.7482,1.3401
27yeast,2.3078,2.3078,2.3078,2.3078
AVERAGE,2.1954000000000002,1.9476,2.8096,2.7403
